Library\Bee\artifacts\mvdfrm\UnityEditor.TestRunner.ref.dll_84C42244F0436F2D.mvfrm
Library\Bee\artifacts\mvdfrm\UnityEditor.UI.ref.dll_BDC26BE24454476F.mvfrm
Library\Bee\artifacts\mvdfrm\UnityEngine.TestRunner.ref.dll_50E26CF31C06CD18.mvfrm
Library\Bee\artifacts\mvdfrm\UnityEngine.UI.ref.dll_7A28423D4A766FDA.mvfrm
Library\Bee\artifacts\mvdfrm\Unity.Burst.Cecil.dll_330433BF39136C64.mvfrm
Library\Bee\artifacts\mvdfrm\Unity.Burst.Cecil.Mdb.dll_38697BC58740A8A1.mvfrm
Library\Bee\artifacts\mvdfrm\Unity.Burst.Cecil.Pdb.dll_4FBBF43505F5AA24.mvfrm
Library\Bee\artifacts\mvdfrm\Unity.Burst.Cecil.Rocks.dll_18CE0210602A96C4.mvfrm
Library\Bee\artifacts\mvdfrm\Unity.Burst.Unsafe.dll_333023FCE640BAEF.mvfrm
Library\Bee\artifacts\mvdfrm\Unity.Plastic.Antlr3.Runtime.dll_9B0E91B3E61285A9.mvfrm
Library\Bee\artifacts\mvdfrm\Unity.Plastic.Newtonsoft.Json.dll_8E8CF75F0EBA947C.mvfrm
Library\Bee\artifacts\mvdfrm\UnityEditor.Graphs.dll_50FE32E9C159E9B4.mvfrm
Library\Bee\artifacts\mvdfrm\UnityEditor.CoreModule.dll_713DE5301FFB6182.mvfrm
Library\Bee\artifacts\mvdfrm\UnityEditor.DeviceSimulatorModule.dll_A35963E73BCB71DF.mvfrm
Library\Bee\artifacts\mvdfrm\UnityEditor.DiagnosticsModule.dll_FC8C1936AC39946D.mvfrm
Library\Bee\artifacts\mvdfrm\UnityEditor.dll_7809FF2CE7A8D073.mvfrm
Library\Bee\artifacts\mvdfrm\UnityEditor.GraphViewModule.dll_559F9D8C083CECA4.mvfrm
Library\Bee\artifacts\mvdfrm\UnityEditor.PackageManagerUIModule.dll_2160AC76F57EE05E.mvfrm
Library\Bee\artifacts\mvdfrm\UnityEditor.PresetsUIModule.dll_1105D66E0A9544A9.mvfrm
Library\Bee\artifacts\mvdfrm\UnityEditor.QuickSearchModule.dll_879B9A44051090C6.mvfrm
Library\Bee\artifacts\mvdfrm\UnityEditor.SceneTemplateModule.dll_18C88B7C59A84407.mvfrm
Library\Bee\artifacts\mvdfrm\UnityEditor.TextCoreFontEngineModule.dll_55006ADAFAE358C0.mvfrm
Library\Bee\artifacts\mvdfrm\UnityEditor.TextCoreTextEngineModule.dll_9CE8A14C8A6711DE.mvfrm
Library\Bee\artifacts\mvdfrm\UnityEditor.UIBuilderModule.dll_AA284AA87AF565D8.mvfrm
Library\Bee\artifacts\mvdfrm\UnityEditor.UIElementsModule.dll_B4D6124D0AD4357E.mvfrm
Library\Bee\artifacts\mvdfrm\UnityEditor.UIElementsSamplesModule.dll_EF49EE37A6510DCF.mvfrm
Library\Bee\artifacts\mvdfrm\UnityEditor.UIServiceModule.dll_E31A5C0B642CB5F2.mvfrm
Library\Bee\artifacts\mvdfrm\UnityEditor.UnityConnectModule.dll_C24965736B3ED138.mvfrm
Library\Bee\artifacts\mvdfrm\UnityEngine.AccessibilityModule.dll_4B6DF7135A1E6BA4.mvfrm
Library\Bee\artifacts\mvdfrm\UnityEngine.AIModule.dll_4CDB0DBBF2311396.mvfrm
Library\Bee\artifacts\mvdfrm\UnityEngine.AndroidJNIModule.dll_331EFB2053F3A454.mvfrm
Library\Bee\artifacts\mvdfrm\UnityEngine.AnimationModule.dll_242519B4E299C14A.mvfrm
Library\Bee\artifacts\mvdfrm\UnityEngine.ARModule.dll_064DD2BF4F4E725F.mvfrm
Library\Bee\artifacts\mvdfrm\UnityEngine.AssetBundleModule.dll_CB84CD35677745B8.mvfrm
Library\Bee\artifacts\mvdfrm\UnityEngine.AudioModule.dll_94DCF62C1AFABFBC.mvfrm
Library\Bee\artifacts\mvdfrm\UnityEngine.ClothModule.dll_FBC55326F5179EA0.mvfrm
Library\Bee\artifacts\mvdfrm\UnityEngine.ClusterInputModule.dll_41E5DA891CC6A3FE.mvfrm
Library\Bee\artifacts\mvdfrm\UnityEngine.ClusterRendererModule.dll_A9062658AB867F63.mvfrm
Library\Bee\artifacts\mvdfrm\UnityEngine.CoreModule.dll_945EB882C800CCAD.mvfrm
Library\Bee\artifacts\mvdfrm\UnityEngine.CrashReportingModule.dll_B7CBDCA17A898E65.mvfrm
Library\Bee\artifacts\mvdfrm\UnityEngine.DirectorModule.dll_F9D87DBF13285E0A.mvfrm
Library\Bee\artifacts\mvdfrm\UnityEngine.dll_AAAE4605461C5D58.mvfrm
Library\Bee\artifacts\mvdfrm\UnityEngine.DSPGraphModule.dll_FF29DF2885892F2B.mvfrm
Library\Bee\artifacts\mvdfrm\UnityEngine.GameCenterModule.dll_5D6C453B1A349545.mvfrm
Library\Bee\artifacts\mvdfrm\UnityEngine.GIModule.dll_E51756C98DDFFBB0.mvfrm
Library\Bee\artifacts\mvdfrm\UnityEngine.GridModule.dll_71CFD470E05562A4.mvfrm
Library\Bee\artifacts\mvdfrm\UnityEngine.HotReloadModule.dll_A56DD7BABDCCDCCC.mvfrm
Library\Bee\artifacts\mvdfrm\UnityEngine.ImageConversionModule.dll_14F824092DAB3757.mvfrm
Library\Bee\artifacts\mvdfrm\UnityEngine.IMGUIModule.dll_CD3C9592E12C539D.mvfrm
Library\Bee\artifacts\mvdfrm\UnityEngine.InputLegacyModule.dll_5CC9E853FF68FBA9.mvfrm
Library\Bee\artifacts\mvdfrm\UnityEngine.InputModule.dll_FB52BDDC9132E460.mvfrm
Library\Bee\artifacts\mvdfrm\UnityEngine.JSONSerializeModule.dll_AB85804F5959CC2E.mvfrm
Library\Bee\artifacts\mvdfrm\UnityEngine.LocalizationModule.dll_8032A4DBB44296F7.mvfrm
Library\Bee\artifacts\mvdfrm\UnityEngine.NVIDIAModule.dll_52754B11C33908B9.mvfrm
Library\Bee\artifacts\mvdfrm\UnityEngine.ParticleSystemModule.dll_0ADE25EDE89B19F3.mvfrm
Library\Bee\artifacts\mvdfrm\UnityEngine.PerformanceReportingModule.dll_5252972C89064E6C.mvfrm
Library\Bee\artifacts\mvdfrm\UnityEngine.Physics2DModule.dll_70CB09A58396B8DF.mvfrm
Library\Bee\artifacts\mvdfrm\UnityEngine.PhysicsModule.dll_884D5B03BE15FA0D.mvfrm
Library\Bee\artifacts\mvdfrm\UnityEngine.ProfilerModule.dll_2C1EB6F5AC81E517.mvfrm
Library\Bee\artifacts\mvdfrm\UnityEngine.RuntimeInitializeOnLoadManagerInitializerModule.dll_5264C5CCC81067A8.mvfrm
Library\Bee\artifacts\mvdfrm\UnityEngine.ScreenCaptureModule.dll_C56D2DD46DC5F890.mvfrm
Library\Bee\artifacts\mvdfrm\UnityEngine.SharedInternalsModule.dll_990962DEA4D932A7.mvfrm
Library\Bee\artifacts\mvdfrm\UnityEngine.SpriteMaskModule.dll_4698B7CB3BA42ABF.mvfrm
Library\Bee\artifacts\mvdfrm\UnityEngine.SpriteShapeModule.dll_E4E5FA901D197DC2.mvfrm
Library\Bee\artifacts\mvdfrm\UnityEngine.StreamingModule.dll_D8BA070532217888.mvfrm
Library\Bee\artifacts\mvdfrm\UnityEngine.SubstanceModule.dll_B5651B4E7D747696.mvfrm
Library\Bee\artifacts\mvdfrm\UnityEngine.SubsystemsModule.dll_B1461E2D09EC12D2.mvfrm
Library\Bee\artifacts\mvdfrm\UnityEngine.TerrainModule.dll_A293D67293D442FB.mvfrm
Library\Bee\artifacts\mvdfrm\UnityEngine.TerrainPhysicsModule.dll_0B58CEC101DE1480.mvfrm
Library\Bee\artifacts\mvdfrm\UnityEngine.TextCoreFontEngineModule.dll_D35FE62E0DE1178B.mvfrm
Library\Bee\artifacts\mvdfrm\UnityEngine.TextCoreTextEngineModule.dll_1B481C9F9D64D0A9.mvfrm
Library\Bee\artifacts\mvdfrm\UnityEngine.TextRenderingModule.dll_EEAC9FDF24FD7885.mvfrm
Library\Bee\artifacts\mvdfrm\UnityEngine.TilemapModule.dll_41903DF3AB912404.mvfrm
Library\Bee\artifacts\mvdfrm\UnityEngine.TLSModule.dll_FDB53BCD30A37FA1.mvfrm
Library\Bee\artifacts\mvdfrm\UnityEngine.UIElementsModule.dll_B5847F950D184EC9.mvfrm
Library\Bee\artifacts\mvdfrm\UnityEngine.UIElementsNativeModule.dll_6BDA610C66F75080.mvfrm
Library\Bee\artifacts\mvdfrm\UnityEngine.UIModule.dll_484EABE94E781942.mvfrm
Library\Bee\artifacts\mvdfrm\UnityEngine.UmbraModule.dll_0FB1A244A8216B2F.mvfrm
Library\Bee\artifacts\mvdfrm\UnityEngine.UNETModule.dll_2705006C150FC226.mvfrm
Library\Bee\artifacts\mvdfrm\UnityEngine.UnityAnalyticsModule.dll_2A7D96B794C26BEF.mvfrm
Library\Bee\artifacts\mvdfrm\UnityEngine.UnityConnectModule.dll_AFA8E98265C6D1E3.mvfrm
Library\Bee\artifacts\mvdfrm\UnityEngine.UnityCurlModule.dll_5741BAE652ADB337.mvfrm
Library\Bee\artifacts\mvdfrm\UnityEngine.UnityTestProtocolModule.dll_AB0CA42A004C6325.mvfrm
Library\Bee\artifacts\mvdfrm\UnityEngine.UnityWebRequestAssetBundleModule.dll_1CA2C4A0113B6A00.mvfrm
Library\Bee\artifacts\mvdfrm\UnityEngine.UnityWebRequestAudioModule.dll_CA4EEB0B0F711904.mvfrm
Library\Bee\artifacts\mvdfrm\UnityEngine.UnityWebRequestModule.dll_26972BB3389FD1D6.mvfrm
Library\Bee\artifacts\mvdfrm\UnityEngine.UnityWebRequestTextureModule.dll_894A2E0A0706B759.mvfrm
Library\Bee\artifacts\mvdfrm\UnityEngine.UnityWebRequestWWWModule.dll_E60A61FB8D248D15.mvfrm
Library\Bee\artifacts\mvdfrm\UnityEngine.VehiclesModule.dll_719B773E8D522DA5.mvfrm
Library\Bee\artifacts\mvdfrm\UnityEngine.VFXModule.dll_7E93D43C0710E90E.mvfrm
Library\Bee\artifacts\mvdfrm\UnityEngine.VideoModule.dll_B9E67A96DD8CDB61.mvfrm
Library\Bee\artifacts\mvdfrm\UnityEngine.VirtualTexturingModule.dll_9067157B3FA5D10B.mvfrm
Library\Bee\artifacts\mvdfrm\UnityEngine.VRModule.dll_9B20D26EF0329EBA.mvfrm
Library\Bee\artifacts\mvdfrm\UnityEngine.WindModule.dll_0AAD93AB59374B16.mvfrm
Library\Bee\artifacts\mvdfrm\UnityEngine.XRModule.dll_CDDF9573796CEC18.mvfrm
Library\Bee\artifacts\mvdfrm\Unity.Android.Gradle.dll_57A6A34B742A6C6A.mvfrm
Library\Bee\artifacts\mvdfrm\Unity.Android.Types.dll_F63FA5B1574CA972.mvfrm
Library\Bee\artifacts\mvdfrm\UnityEditor.Android.Extensions.dll_B3BE209A02B2FEEA.mvfrm
Library\Bee\artifacts\mvdfrm\UnityEditor.UWP.Extensions.dll_8280568CEBD7E529.mvfrm
Library\Bee\artifacts\mvdfrm\UnityEngine.WebGLModule.dll_5ACC158FCFE00751.mvfrm
Library\Bee\artifacts\mvdfrm\UnityEditor.WebGL.Extensions.dll_E7FF0CF644C07A4E.mvfrm
Library\Bee\artifacts\mvdfrm\UnityEditor.WindowsStandalone.Extensions.dll_C7D5CCCB13F09A3E.mvfrm